Week 5 – Data manipulation with dplyr
…
Finally, we’ll return to plotting and look at a powerful feature of
ggplot2, faceting, that allows you to divide your plots
into subplots by splitting the observations based on one or more
categorical variables.

We’ll again use the METABRIC data set to illustrate how these
operations work.

metabric <- read_csv("data/metabric_clinical_and_expression_data.csv")
metabric

## # A tibble: 1,904 × 32
##    Patient_ID Cohort Age_at_diagnosis Survival_time Survival_status Vital_status
##    <chr>       <dbl>            <dbl>         <dbl> <chr>           <chr>       
##  1 MB-0000         1             75.6         140.  LIVING          Living      
##  2 MB-0002         1             43.2          84.6 LIVING          Living      
##  3 MB-0005         1             48.9         164.  DECEASED        Died of Dis…
##  4 MB-0006         1             47.7         165.  LIVING          Living      
##  5 MB-0008         1             77.0          41.4 DECEASED        Died of Dis…
##  6 MB-0010         1             78.8           7.8 DECEASED        Died of Dis…
##  7 MB-0014         1             56.4         164.  LIVING          Living      
##  8 MB-0022         1             89.1          99.5 DECEASED        Died of Oth…
##  9 MB-0028         1             86.4          36.6 DECEASED        Died of Oth…
## 10 MB-0035         1             84.2          36.3 DECEASED        Died of Dis…
## # ℹ 1,894 more rows
## # ℹ 26 more variables: Chemotherapy <chr>, Radiotherapy <chr>,
## #   Tumour_size <dbl>, Tumour_stage <dbl>, Neoplasm_histologic_grade <dbl>,
## #   Lymph_nodes_examined_positive <dbl>, Lymph_node_status <dbl>,
## #   Cancer_type <chr>, ER_status <chr>, PR_status <chr>, HER2_status <chr>,
## #   HER2_status_measured_by_SNP6 <chr>, PAM50 <chr>, `3-gene_classifier` <chr>,
## #   Nottingham_prognostic_index <dbl>, Cellularity <chr>, …
…
patients <- filter(metabric,
                   Survival_status == "LIVING" & Survival_time > 120)
patient_details <- select(patients,
                          Patient_ID,
                          Survival_time,
                          Tumour_stage,
                          Nottingham_prognostic_index)
patient_details

## # A tibble: 545 × 4
##    Patient_ID Survival_time Tumour_stage Nottingham_prognostic_index
##    <chr>              <dbl>        <dbl>                       <dbl>
##  1 MB-0000             140.            2                        6.04
##  2 MB-0006             165.            2                        4.05
##  3 MB-0014             164.            2                        4.02
##  4 MB-0039             164.            1                        2.04
##  5 MB-0045             165.            2                        5.04
##  6 MB-0053             161.            2                        3.05
##  7 MB-0054             160.            2                        4.07
##  8 MB-0060             141.            2                        4.05
##  9 MB-0062             154.            1                        4.03
## 10 MB-0066             157.            2                        4.03
## # ℹ 535 more rows
…
At each stage we look at the resulting patients data
frame to check we’re happy with the result.

Finally we only want certain columns, so we add a
select() operation.

patients <- metabric %>%
    filter(Survival_status == "LIVING") %>%
    filter(Survival_time > 120) %>%
    select(Patient_ID, Survival_time, Tumour_stage, Nottingham_prognostic_index)
# print out the result
patients

## # A tibble: 545 × 4
##    Patient_ID Survival_time Tumour_stage Nottingham_prognostic_index
##    <chr>              <dbl>        <dbl>                       <dbl>
##  1 MB-0000             140.            2                        6.04
##  2 MB-0006             165.            2                        4.05
##  3 MB-0014             164.            2                        4.02
##  4 MB-0039             164.            1                        2.04
##  5 MB-0045             165.            2                        5.04
##  6 MB-0053             161.            2                        3.05
##  7 MB-0054             160.            2                        4.07
##  8 MB-0060             141.            2                        4.05
##  9 MB-0062             154.            1                        4.03
## 10 MB-0066             157.            2                        4.03
## # ℹ 535 more rows
…
metabric <- metabric %>%
    mutate(NPI = (0.2 * Tumour_size) +
               Lymph_node_status +
               Neoplasm_histologic_grade)

select(metabric,
       Tumour_size,
       Lymph_node_status,
       Neoplasm_histologic_grade,
       NPI,
       Nottingham_prognostic_index)

## # A tibble: 1,904 × 5
##    Tumour_size Lymph_node_status Neoplasm_histologic_grade   NPI
##          <dbl>             <dbl>                     <dbl> <dbl>
##  1         2.2                 3                         3  6.44
##  2         1                   1                         3  4.2 
##  3         1.5                 2                         2  4.3 
##  4         2.5                 2                         2  4.5 
##  5         4                   3                         3  6.8 
##  6         3.1                 1                         3  4.62
##  7         1                   2                         2  4.2 
##  8         2.9                 2                         2  4.58
##  9         1.6                 2                         3  5.32
## 10         2.8                 1                         2  3.56
## # ℹ 1,894 more rows
## # ℹ 1 more variable: Nottingham_prognostic_index <dbl>
…
read_csv("data/metabric_clinical_and_expression_data.csv") %>%
    mutate(Tumour_size = Tumour_size / 10) %>%
    mutate(NPI = (0.2 * Tumour_size) +
               Lymph_node_status +
               Neoplasm_histologic_grade) %>%
    mutate(Tumour_size = round(Tumour_size, digits = 1)) %>%
    mutate(NPI = round(NPI, digits = 1)) %>%
    arrange(desc(NPI)) %>%
    select(Tumour_size, Lymph_node_status, Neoplasm_histologic_grade, NPI)

## # A tibble: 1,904 × 4
##    Tumour_size Lymph_node_status Neoplasm_histologic_grade   NPI
##          <dbl>             <dbl>                     <dbl> <dbl>
##  1        18                   3                         3   9.6
##  2        16                   3                         3   9.2
##  3        15                   3                         3   9  
##  4        13                   3                         3   8.6
##  5        18.2                 2                         3   8.6
##  6        12                   3                         3   8.4
##  7        10                   3                         3   8  
##  8         9.9                 3                         3   8  
##  9         9.9                 3                         3   8  
## 10         8.4                 3                         3   7.7
## # ℹ 1,894 more rows
…
across is used inside mutate and takes two
arguments, first a selection of columns to operate across and second a
function to apply to those columns.

So if we just wanted to round to the the nearest integer:

metabric %>%
    mutate(across(c(Tumour_size, NPI), round)) %>%
    select(Patient_ID, Tumour_size, NPI)

## # A tibble: 1,904 × 3
##    Patient_ID Tumour_size   NPI
##    <chr>            <dbl> <dbl>
##  1 MB-0000              2     6
##  2 MB-0002              1     4
##  3 MB-0005              2     4
##  4 MB-0006              2     4
##  5 MB-0008              4     7
##  6 MB-0010              3     5
##  7 MB-0014              1     4
##  8 MB-0022              3     5
##  9 MB-0028              2     5
## 10 MB-0035              3     4
## # ℹ 1,894 more rows
…
Let’s say we want to convert the petal and sepal measurements in the
iris data set from centimetres to millimetres. We’d either
need to create a new function to do this conversion or we could use what
is known as an anonymous function.

There is no ‘multiply by 10’ function and it seems a bit pointless to
create one just for this conversion so we’ll use an anonymous function
instead – anonymous because it has no name, it’s an in situ
function only used in our mutate() function call.

iris %>%
    as_tibble() %>%
    mutate(across(Sepal.Length:Petal.Width, ~ .x * 10))

## # A tibble: 150 × 5
##    Sepal.Length Sepal.Width Petal.Length Petal.Width Species
##           <dbl>       <dbl>        <dbl>       <dbl> <fct>  
##  1           51          35           14           2 setosa 
##  2           49          30           14           2 setosa 
##  3           47          32           13           2 setosa 
##  4           46          31           15           2 setosa 
##  5           50          36           14           2 setosa 
##  6           54          39           17           4 setosa 
##  7           46          34           14           3 setosa 
##  8           50          34           15           2 setosa 
##  9           44          29           14           2 setosa 
## 10           49          31           15           1 setosa 
## # ℹ 140 more rows
…
If we wish to use an existing function but provide additional
arguments, then the syntax is:

~func(.x, ...)

Where .x is going to be replaced with the column names
and ... is the extra arguments we need to add.

So if we want to round to 1 decimal place:

metabric %>%
    mutate(across(c(Tumour_size, NPI), ~round(.x, digits = 1))) %>%
    select(Patient_ID, Tumour_size, NPI)

## # A tibble: 1,904 × 3
##    Patient_ID Tumour_size   NPI
##    <chr>            <dbl> <dbl>
##  1 MB-0000            2.2   6.4
##  2 MB-0002            1     4.2
##  3 MB-0005            1.5   4.3
##  4 MB-0006            2.5   4.5
##  5 MB-0008            4     6.8
##  6 MB-0010            3.1   4.6
##  7 MB-0014            1     4.2
##  8 MB-0022            2.9   4.6
##  9 MB-0028            1.6   5.3
## 10 MB-0035            2.8   3.6
## # ℹ 1,894 more rows

We can use the range operator and the same helper functions as we did
for selecting columns using select() inside
across().

For example, we might decide that our expression values are given to
a much higher degree of precision than is strictly necessary.

metabric %>%
    mutate(across(ESR1:MLPH, ~round(.x, digits = 2))) %>%
    select(Patient_ID, ESR1:MLPH)

## # A tibble: 1,904 × 9
##    Patient_ID  ESR1 ERBB2   PGR  TP53 PIK3CA GATA3 FOXA1  MLPH
##    <chr>      <dbl> <dbl> <dbl> <dbl>  <dbl> <dbl> <dbl> <dbl>
##  1 MB-0000     8.93  9.33  5.68  6.34   5.7   6.93  7.95  9.73
##  2 MB-0002    10.0   9.73  7.51  6.19   5.76 11.2  11.8  12.5 
##  3 MB-0005    10.0   9.73  7.38  6.4    6.75  9.29 11.7  10.3 
##  4 MB-0006    10.4  10.3   6.82  6.87   7.22  8.67 11.9  10.5 
##  5 MB-0008    11.3   9.96  7.33  6.34   5.82  9.72 11.6  12.2 
##  6 MB-0010    11.2   9.74  5.95  5.42   6.12  9.79 12.1  11.4 
##  7 MB-0014    10.8   9.28  7.72  5.99   7.48  8.37 11.5  10.8 
##  8 MB-0022    10.4   8.61  5.59  6.17   7.59  7.87 10.7   9.95
##  9 MB-0028    12.5  10.7   5.33  6.22   6.25 10.3  12.2  10.9 
## 10 MB-0035     7.54 11.5   5.59  6.41   5.99 10.2  12.8  13.5 
## # ℹ 1,894 more rows

Or we could decide that all the columns whose names end with
“_status” are in fact categorical variables and should be converted to
factors.

metabric %>%
    mutate(across(ends_with("_status"), as.factor)) %>%
    select(Patient_ID, ends_with("_status"))

## # A tibble: 1,904 × 7
##    Patient_ID Survival_status Vital_status Lymph_node_status ER_status PR_status
##    <chr>      <fct>           <fct>        <fct>             <fct>     <fct>    
##  1 MB-0000    LIVING          Living       3                 Positive  Negative 
##  2 MB-0002    LIVING          Living       1                 Positive  Positive 
##  3 MB-0005    DECEASED        Died of Dis… 2                 Positive  Positive 
##  4 MB-0006    LIVING          Living       2                 Positive  Positive 
##  5 MB-0008    DECEASED        Died of Dis… 3                 Positive  Positive 
##  6 MB-0010    DECEASED        Died of Dis… 1                 Positive  Positive 
##  7 MB-0014    LIVING          Living       2                 Positive  Positive 
##  8 MB-0022    DECEASED        Died of Oth… 2                 Positive  Negative 
##  9 MB-0028    DECEASED        Died of Oth… 2                 Positive  Negative 
## 10 MB-0035    DECEASED        Died of Dis… 1                 Positive  Negative 
## # ℹ 1,894 more rows
## # ℹ 1 more variable: HER2_status <fct>
…
First obtain the subset of patients that received neither
chemotherapy or radiotherapy and survived for more than 20 years.

Answer

patients <- metabric %>%
    mutate(Survival_time_years = Survival_time / 12) %>%
    filter(Chemotherapy == "NO" &
               Radiotherapy == "NO" &
               Survival_time_years > 20)

patients

## # A tibble: 70 × 33
##    Patient_ID Cohort Age_at_diagnosis Survival_time Survival_status Vital_status
##    <chr>       <dbl>            <dbl>         <dbl> <chr>           <chr>       
##  1 MB-0270         1             30.0          337. LIVING          Living      
##  2 MB-2517         2             60.3          268. DECEASED        Died of Oth…
##  3 MB-2610         2             59.0          281. LIVING          Living      
##  4 MB-2763         2             70.3          276. LIVING          Living      
##  5 MB-2770         2             60.3          274. LIVING          Living      
##  6 MB-2793         2             67.6          267. LIVING          Living      
##  7 MB-2797         2             50.1          253. LIVING          Living      
##  8 MB-2819         2             62.0          271. LIVING          Living      
##  9 MB-2838         2             67.1          270. LIVING          Living      
## 10 MB-2840         2             60.5          269  LIVING          Living      
## # ℹ 60 more rows
## # ℹ 27 more variables: Chemotherapy <chr>, Radiotherapy <chr>,
## #   Tumour_size <dbl>, Tumour_stage <dbl>, Neoplasm_histologic_grade <dbl>,
## #   Lymph_nodes_examined_positive <dbl>, Lymph_node_status <dbl>,
## #   Cancer_type <chr>, ER_status <chr>, PR_status <chr>, HER2_status <chr>,
## #   HER2_status_measured_by_SNP6 <chr>, PAM50 <chr>, `3-gene_classifier` <chr>,
## #   Nottingham_prognostic_index <dbl>, Cellularity <chr>, …
…
Answer

metabric %>%
    mutate(Survival_time_years = Survival_time / 12) %>%
    mutate(Age = Age_at_diagnosis + Survival_time_years) %>%
    mutate(Proportion_of_life_since_diagnosis = Survival_time_years / Age) %>%
    select(Patient_ID,
           Age,
           Age_at_diagnosis,
           Survival_time_years,
           Proportion_of_life_since_diagnosis) %>%
    arrange(desc(Proportion_of_life_since_diagnosis)) %>%
    mutate(across(where(is.numeric), ~round(.x, digits = 2)))

## # A tibble: 1,904 × 5
##    Patient_ID   Age Age_at_diagnosis Survival_time_years Proportion_of_life_si…¹
##    <chr>      <dbl>            <dbl>               <dbl>                   <dbl>
##  1 MB-0270     58.1             30.0                28.1                    0.48
##  2 MB-4332     60.0             34.4                25.7                    0.43
##  3 MB-6062     55.1             31.6                23.5                    0.43
##  4 MB-2753     53.8             31.0                22.9                    0.42
##  5 MB-2957     52.9             31.0                21.8                    0.41
##  6 MB-2823     58.5             36.0                22.5                    0.38
##  7 MB-2779     59.7             36.8                22.9                    0.38
##  8 MB-2853     58.7             36.2                22.5                    0.38
##  9 MB-4881     59.9             37.0                22.8                    0.38
## 10 MB-4375     64.3             40.0                24.3                    0.38
## # ℹ 1,894 more rows
## # ℹ abbreviated name: ¹​Proportion_of_life_since_diagnosis
