Session 8 – Restructuring data for analysis
…
separate_wider_regex() - for splitting columns based on
a regular expression

separate_wider_fixed() - for splitting columns based on
a fixed number of characters

Example 1: METABRIC gene expression

metabric <- read_csv("data/metabric_clinical_and_expression_data.csv") %>%
    select(Patient_ID, ER_status, ESR1:MLPH)
metabric

## # A tibble: 1,904 × 10
##    Patient_ID ER_status  ESR1 ERBB2   PGR  TP53 PIK3CA GATA3 FOXA1  MLPH
##    <chr>      <chr>     <dbl> <dbl> <dbl> <dbl>  <dbl> <dbl> <dbl> <dbl>
##  1 MB-0000    Positive   8.93  9.33  5.68  6.34   5.70  6.93  7.95  9.73
##  2 MB-0002    Positive  10.0   9.73  7.51  6.19   5.76 11.3  11.8  12.5 
##  3 MB-0005    Positive  10.0   9.73  7.38  6.40   6.75  9.29 11.7  10.3 
##  4 MB-0006    Positive  10.4  10.3   6.82  6.87   7.22  8.67 11.9  10.5 
##  5 MB-0008    Positive  11.3   9.96  7.33  6.34   5.82  9.72 11.6  12.2 
##  6 MB-0010    Positive  11.2   9.74  5.95  5.42   6.12  9.79 12.1  11.4 
##  7 MB-0014    Positive  10.8   9.28  7.72  5.99   7.48  8.37 11.5  10.8 
##  8 MB-0022    Positive  10.4   8.61  5.59  6.17   7.59  7.87 10.7   9.95
##  9 MB-0028    Positive  12.5  10.7   5.33  6.22   6.25 10.3  12.1  10.9 
## 10 MB-0035    Positive   7.54 11.5   5.59  6.41   5.99 10.2  12.8  13.5 
## # ℹ 1,894 more rows
…
what if we would like to create a series of plots using
faceting

metabric <- pivot_longer(metabric,
                         ESR1:MLPH,
                         names_to = "Gene",
                         values_to = "Expression")
metabric

## # A tibble: 15,232 × 4
##    Patient_ID ER_status Gene   Expression
##    <chr>      <chr>     <chr>       <dbl>
##  1 MB-0000    Positive  ESR1         8.93
##  2 MB-0000    Positive  ERBB2        9.33
##  3 MB-0000    Positive  PGR          5.68
##  4 MB-0000    Positive  TP53         6.34
##  5 MB-0000    Positive  PIK3CA       5.70
##  6 MB-0000    Positive  GATA3        6.93
##  7 MB-0000    Positive  FOXA1        7.95
##  8 MB-0000    Positive  MLPH         9.73
##  9 MB-0002    Positive  ESR1        10.0 
## 10 MB-0002    Positive  ERBB2        9.73
## # ℹ 15,222 more rows
…
Example 2: Protein levels in MCF-7 after treatment with
tamoxifen

library(readxl)
protein_levels <- read_excel("data/41467_2018_4619_MOESM11_ESM.xlsx", skip = 1)
select(protein_levels, `Uniprot Accession`, `Gene Name`, ends_with("rep01"))

## # A tibble: 7,943 × 6
##    `Uniprot Accession` `Gene Name` vehicle.rep01 tam.2h.rep01 tam.6h.rep01
##    <chr>               <chr>               <dbl>        <dbl>        <dbl>
##  1 Q09666              AHNAK                17.3         17.3         17.3
##  2 P05787              KRT8                 16.9         17.1         17.0
##  3 Q15149              PLEC                 16.7         16.7         16.7
##  4 P21333              FLNA                 16.6         16.5         16.6
##  5 P05783              KRT18                16.4         16.6         16.5
##  6 P49327              FASN                 16.0         16.0         16.0
##  7 P10809              HSPD1                16.1         16.2         16.1
##  8 Q14204              DYNC1H1              16.0         15.9         16.0
##  9 O75369              FLNB                 16.1         16.1         16.2
## 10 P35579              MYH9                 15.7         15.6         15.8
## # ℹ 7,933 more rows
## # ℹ 1 more variable: tam.24h.rep01 <dbl>
…
the time at which the protein levels are measured after
treatment

the number of the replicate sample for that treatment and time
point

First pivot

protein_levels <- pivot_longer(protein_levels,
                               vehicle.rep01:tam.24h.rep04,
                               names_to = "sample",
                               values_to = "protein_level")
protein_levels

## # A tibble: 160 × 4
##    accession gene  sample        protein_level
##    <chr>     <chr> <chr>                 <dbl>
##  1 Q4ZG55    GREB1 vehicle.rep01         12.1 
##  2 Q4ZG55    GREB1 tam.2h.rep01          12   
##  3 Q4ZG55    GREB1 tam.6h.rep01          11.6 
##  4 Q4ZG55    GREB1 tam.24h.rep01          9.78
##  5 Q4ZG55    GREB1 vehicle.rep02         11.3 
##  6 Q4ZG55    GREB1 tam.2h.rep02          11.4 
##  7 Q4ZG55    GREB1 tam.6h.rep02          11.1 
##  8 Q4ZG55    GREB1 tam.24h.rep02          8.98
##  9 Q4ZG55    GREB1 vehicle.rep03         11.0 
## 10 Q4ZG55    GREB1 tam.2h.rep03          11.0 
## # ℹ 150 more rows
…
## [1] "vehicle.24h.rep01"

str_replace(protein_levels$sample[1:10], "vehicle", "vehicle.24h")

##  [1] "vehicle.24h.rep01" "tam.2h.rep01"      "tam.6h.rep01"     
##  [4] "tam.24h.rep01"     "vehicle.24h.rep02" "tam.2h.rep02"     
##  [7] "tam.6h.rep02"      "tam.24h.rep02"     "vehicle.24h.rep03"
## [10] "tam.2h.rep03"

protein_levels <- mutate(protein_levels,
                         sample = str_replace(sample, "vehicle", "vehicle.24h"))
protein_levels

## # A tibble: 160 × 4
##    accession gene  sample            protein_level
##    <chr>     <chr> <chr>                     <dbl>
##  1 Q4ZG55    GREB1 vehicle.24h.rep01         12.1 
##  2 Q4ZG55    GREB1 tam.2h.rep01              12   
##  3 Q4ZG55    GREB1 tam.6h.rep01              11.6 
##  4 Q4ZG55    GREB1 tam.24h.rep01              9.78
##  5 Q4ZG55    GREB1 vehicle.24h.rep02         11.3 
##  6 Q4ZG55    GREB1 tam.2h.rep02              11.4 
##  7 Q4ZG55    GREB1 tam.6h.rep02              11.1 
##  8 Q4ZG55    GREB1 tam.24h.rep02              8.98
##  9 Q4ZG55    GREB1 vehicle.24h.rep03         11.0 
## 10 Q4ZG55    GREB1 tam.2h.rep03              11.0 
## # ℹ 150 more rows

protein_levels <- separate_wider_delim(protein_levels,
                                       sample,
                                       names = c("treatment", "time", "replicate"),
                                       delim = ".")
protein_levels

## # A tibble: 160 × 6
##    accession gene  treatment time  replicate protein_level
##    <chr>     <chr> <chr>     <chr> <chr>             <dbl>
##  1 Q4ZG55    GREB1 vehicle   24h   rep01             12.1 
##  2 Q4ZG55    GREB1 tam       2h    rep01             12   
##  3 Q4ZG55    GREB1 tam       6h    rep01             11.6 
##  4 Q4ZG55    GREB1 tam       24h   rep01              9.78
##  5 Q4ZG55    GREB1 vehicle   24h   rep02             11.3 
##  6 Q4ZG55    GREB1 tam       2h    rep02             11.4 
##  7 Q4ZG55    GREB1 tam       6h    rep02             11.1 
##  8 Q4ZG55    GREB1 tam       24h   rep02              8.98
##  9 Q4ZG55    GREB1 vehicle   24h   rep03             11.0 
## 10 Q4ZG55    GREB1 tam       2h    rep03             11.0 
## # ℹ 150 more rows

protein_levels <- protein_levels %>%
    mutate(group = str_sub(treatment, 1, 3)) %>%
    mutate(group = str_c(group, time)) %>%
    mutate(group = as_factor(group))
protein_levels

## # A tibble: 160 × 7
##    accession gene  treatment time  replicate protein_level group 
##    <chr>     <chr> <chr>     <chr> <chr>             <dbl> <fct> 
##  1 Q4ZG55    GREB1 vehicle   24h   rep01             12.1  veh24h
##  2 Q4ZG55    GREB1 tam       2h    rep01             12    tam2h 
##  3 Q4ZG55    GREB1 tam       6h    rep01             11.6  tam6h 
##  4 Q4ZG55    GREB1 tam       24h   rep01              9.78 tam24h
##  5 Q4ZG55    GREB1 vehicle   24h   rep02             11.3  veh24h
##  6 Q4ZG55    GREB1 tam       2h    rep02             11.4  tam2h 
##  7 Q4ZG55    GREB1 tam       6h    rep02             11.1  tam6h 
##  8 Q4ZG55    GREB1 tam       24h   rep02              8.98 tam24h
##  9 Q4ZG55    GREB1 vehicle   24h   rep03             11.0  veh24h
## 10 Q4ZG55    GREB1 tam       2h    rep03             11.0  tam2h 
## # ℹ 150 more rows

Computing the mean protein levels within each group is now very
straightforward.

protein_levels %>%
    group_by(accession, gene, group) %>%
    summarize(protein_level = mean(protein_level))

## `summarise()` has grouped output by 'accession', 'gene'. You can override using
## the `.groups` argument.

## # A tibble: 40 × 4
## # Groups:   accession, gene [10]
##    accession gene   group  protein_level
##    <chr>     <chr>  <fct>          <dbl>
##  1 O95084    PRSS23 veh24h          8.16
##  2 O95084    PRSS23 tam2h           8.2 
##  3 O95084    PRSS23 tam6h           8.03
##  4 O95084    PRSS23 tam24h          7.20
##  5 P06401    PGR    veh24h          9.44
##  6 P06401    PGR    tam2h           9.66
##  7 P06401    PGR    tam6h           9.41
##  8 P06401    PGR    tam24h          8.39
##  9 P08493    MGP    veh24h          5.59
## 10 P08493    MGP    tam2h           5.69
## # ℹ 30 more rows
…
metabric <- read_csv("data/metabric_clinical_and_expression_data.csv") %>%
    mutate(Integrative_cluster = factor(Integrative_cluster,
                                        levels = cluster_order)) %>%
    mutate(`3-gene_classifier` = replace_na(`3-gene_classifier`,
                                            "Unclassified")) %>%
    select(Patient_ID,
           ER_status,
           PR_status,
           `3-gene_classifier`,
           Integrative_cluster,
           ESR1) %>%
    filter(!is.na(Integrative_cluster), !is.na(ESR1))
metabric

## # A tibble: 1,904 × 6
##    Patient_ID ER_status PR_status `3-gene_classifier`  Integrative_cluster  ESR1
##    <chr>      <chr>     <chr>     <chr>                <fct>               <dbl>
##  1 MB-0000    Positive  Negative  ER-/HER2-            4ER+                 8.93
##  2 MB-0002    Positive  Positive  ER+/HER2- High Prol… 4ER+                10.0 
##  3 MB-0005    Positive  Positive  Unclassified         3                   10.0 
##  4 MB-0006    Positive  Positive  Unclassified         9                   10.4 
##  5 MB-0008    Positive  Positive  ER+/HER2- High Prol… 9                   11.3 
##  6 MB-0010    Positive  Positive  ER+/HER2- High Prol… 7                   11.2 
##  7 MB-0014    Positive  Positive  Unclassified         3                   10.8 
##  8 MB-0022    Positive  Negative  Unclassified         3                   10.4 
##  9 MB-0028    Positive  Negative  ER+/HER2- High Prol… 9                   12.5 
## 10 MB-0035    Positive  Negative  ER+/HER2- High Prol… 3                    7.54
## # ℹ 1,894 more rows
…
